[{"line":1,"elements":[{"line":2,"name":"","description":"","type":"background","keyword":"Background","steps":[{"name":"url 'https:\/\/reqres.in'","result":{"duration":3845900,"status":"passed"},"match":{"location":"karate","arguments":[]},"keyword":"*","line":3,"doc_string":{"content_type":"","value":"21:28:44.606 karate.env system property was: null \n","line":3}}]},{"start_timestamp":"2024-10-09T02:28:44.322Z","line":6,"name":"Get user","description":"","id":"get-user","type":"scenario","keyword":"Scenario","steps":[{"name":"path 'api\/users?page=2'","result":{"duration":1724700,"status":"passed"},"match":{"location":"karate","arguments":[]},"keyword":"Given","line":7},{"name":"method get","result":{"duration":2817811400,"status":"passed"},"match":{"location":"karate","arguments":[]},"keyword":"When","line":8,"doc_string":{"content_type":"","value":"21:28:45.990 request:\n1 > GET https:\/\/reqres.in\/api\/users%3Fpage=2\n1 > Host: reqres.in\n1 > Connection: Keep-Alive\n1 > User-Agent: Apache-HttpClient\/4.5.14 (Java\/17.0.2)\n1 > Accept-Encoding: gzip,deflate\n\n\n21:28:47.424 response time in milliseconds: 1416\n1 < 200\n1 < Date: Wed, 09 Oct 2024 02:28:47 GMT\n1 < Content-Type: application\/json; charset=utf-8\n1 < Transfer-Encoding: chunked\n1 < Connection: keep-alive\n1 < Report-To: {\"group\":\"heroku-nel\",\"max_age\":3600,\"endpoints\":[{\"url\":\"https:\/\/nel.heroku.com\/reports?ts=1728440927&sid=c4c9725f-1ab0-44d8-820f-430df2718e11&s=DYvx%2BcT8khkAsCpTQEaJIO80tMwRUkDj0Q3Mu5Whx%2Bg%3D\"}]}\n1 < Reporting-Endpoints: heroku-nel=https:\/\/nel.heroku.com\/reports?ts=1728440927&sid=c4c9725f-1ab0-44d8-820f-430df2718e11&s=DYvx%2BcT8khkAsCpTQEaJIO80tMwRUkDj0Q3Mu5Whx%2Bg%3D\n1 < Nel: {\"report_to\":\"heroku-nel\",\"max_age\":3600,\"success_fraction\":0.005,\"failure_fraction\":0.05,\"response_headers\":[\"Via\"]}\n1 < X-Powered-By: Express\n1 < Access-Control-Allow-Origin: *\n1 < Etag: W\/\"2c1-N6Rqerxquq2kgQhL51EiSg4x0R8\"\n1 < Via: 1.1 vegur\n1 < Cache-Control: max-age=14400\n1 < CF-Cache-Status: MISS\n1 < Vary: Accept-Encoding\n1 < Server: cloudflare\n1 < CF-RAY: 8cfaf06fb8f777ed-GRU\n{\"page\":1,\"per_page\":6,\"total\":12,\"total_pages\":2,\"data\":[{\"id\":1,\"name\":\"cerulean\",\"year\":2000,\"color\":\"#98B2D1\",\"pantone_value\":\"15-4020\"},{\"id\":2,\"name\":\"fuchsia rose\",\"year\":2001,\"color\":\"#C74375\",\"pantone_value\":\"17-2031\"},{\"id\":3,\"name\":\"true red\",\"year\":2002,\"color\":\"#BF1932\",\"pantone_value\":\"19-1664\"},{\"id\":4,\"name\":\"aqua sky\",\"year\":2003,\"color\":\"#7BC4C4\",\"pantone_value\":\"14-4811\"},{\"id\":5,\"name\":\"tigerlily\",\"year\":2004,\"color\":\"#E2583E\",\"pantone_value\":\"17-1456\"},{\"id\":6,\"name\":\"blue turquoise\",\"year\":2005,\"color\":\"#53B0AE\",\"pantone_value\":\"15-5217\"}],\"support\":{\"url\":\"https:\/\/reqres.in\/#support-heading\",\"text\":\"To keep ReqRes free, contributions towards server costs are appreciated!\"}}\n\n","line":8}},{"name":"status 200","result":{"duration":192700,"status":"passed"},"match":{"location":"karate","arguments":[]},"keyword":"Then","line":9},{"name":"def name1 = data[0].name","result":{"duration":43210200,"error_message":"js failed:\n>>>>\n01: data[0].name\n<<<<\norg.graalvm.polyglot.PolyglotException: ReferenceError: \"data\" is not defined\n- <js>.:program(Unnamed:1)\n\nclasspath:features\/request.feature:10","status":"failed"},"match":{"location":"karate","arguments":[]},"keyword":"*","line":10,"doc_string":{"content_type":"","value":"21:28:47.655 classpath:features\/request.feature:10\n* def name1 = data[0].name\njs failed:\n>>>>\n01: data[0].name\n<<<<\norg.graalvm.polyglot.PolyglotException: ReferenceError: \"data\" is not defined\n- <js>.:program(Unnamed:1)\n\nclasspath:features\/request.feature:10\n","line":10}},{"name":"print 'first name >>> ', name1","result":{"duration":0,"status":"skipped"},"match":{"location":"karate","arguments":[]},"keyword":"*","line":11}],"tags":[{"name":"@Test-reqrest","line":5}]}],"name":"features\/request.feature","description":"Api reqrest","id":"api-reqrest","keyword":"Feature","uri":"features\/request.feature"}]