{"failedCount":1,"prefixedPath":"classpath:features\/request.feature","packageQualifiedName":"features.request","loopIndex":-1,"relativePath":"features\/request.feature","scenarioResults":[{"sectionIndex":0,"stepResults":[{"result":{"nanos":3845900,"startTime":1728440924747,"endTime":1728440924751,"millis":3.8459,"status":"passed"},"step":{"background":true,"line":3,"prefix":"*","index":0,"text":"url 'https:\/\/reqres.in'"},"stepLog":"21:28:44.606 karate.env system property was: null \n"},{"result":{"nanos":1724700,"startTime":1728440924759,"endTime":1728440924761,"millis":1.7247,"status":"passed"},"step":{"line":7,"prefix":"Given","index":0,"text":"path 'api\/users?page=2'"}},{"result":{"nanos":2817811400,"startTime":1728440924761,"endTime":1728440927579,"millis":2817.8114,"status":"passed"},"step":{"line":8,"prefix":"When","index":1,"text":"method get"},"stepLog":"21:28:45.990 request:\n1 > GET https:\/\/reqres.in\/api\/users%3Fpage=2\n1 > Host: reqres.in\n1 > Connection: Keep-Alive\n1 > User-Agent: Apache-HttpClient\/4.5.14 (Java\/17.0.2)\n1 > Accept-Encoding: gzip,deflate\n\n\n21:28:47.424 response time in milliseconds: 1416\n1 < 200\n1 < Date: Wed, 09 Oct 2024 02:28:47 GMT\n1 < Content-Type: application\/json; charset=utf-8\n1 < Transfer-Encoding: chunked\n1 < Connection: keep-alive\n1 < Report-To: {\"group\":\"heroku-nel\",\"max_age\":3600,\"endpoints\":[{\"url\":\"https:\/\/nel.heroku.com\/reports?ts=1728440927&sid=c4c9725f-1ab0-44d8-820f-430df2718e11&s=DYvx%2BcT8khkAsCpTQEaJIO80tMwRUkDj0Q3Mu5Whx%2Bg%3D\"}]}\n1 < Reporting-Endpoints: heroku-nel=https:\/\/nel.heroku.com\/reports?ts=1728440927&sid=c4c9725f-1ab0-44d8-820f-430df2718e11&s=DYvx%2BcT8khkAsCpTQEaJIO80tMwRUkDj0Q3Mu5Whx%2Bg%3D\n1 < Nel: {\"report_to\":\"heroku-nel\",\"max_age\":3600,\"success_fraction\":0.005,\"failure_fraction\":0.05,\"response_headers\":[\"Via\"]}\n1 < X-Powered-By: Express\n1 < Access-Control-Allow-Origin: *\n1 < Etag: W\/\"2c1-N6Rqerxquq2kgQhL51EiSg4x0R8\"\n1 < Via: 1.1 vegur\n1 < Cache-Control: max-age=14400\n1 < CF-Cache-Status: MISS\n1 < Vary: Accept-Encoding\n1 < Server: cloudflare\n1 < CF-RAY: 8cfaf06fb8f777ed-GRU\n{\"page\":1,\"per_page\":6,\"total\":12,\"total_pages\":2,\"data\":[{\"id\":1,\"name\":\"cerulean\",\"year\":2000,\"color\":\"#98B2D1\",\"pantone_value\":\"15-4020\"},{\"id\":2,\"name\":\"fuchsia rose\",\"year\":2001,\"color\":\"#C74375\",\"pantone_value\":\"17-2031\"},{\"id\":3,\"name\":\"true red\",\"year\":2002,\"color\":\"#BF1932\",\"pantone_value\":\"19-1664\"},{\"id\":4,\"name\":\"aqua sky\",\"year\":2003,\"color\":\"#7BC4C4\",\"pantone_value\":\"14-4811\"},{\"id\":5,\"name\":\"tigerlily\",\"year\":2004,\"color\":\"#E2583E\",\"pantone_value\":\"17-1456\"},{\"id\":6,\"name\":\"blue turquoise\",\"year\":2005,\"color\":\"#53B0AE\",\"pantone_value\":\"15-5217\"}],\"support\":{\"url\":\"https:\/\/reqres.in\/#support-heading\",\"text\":\"To keep ReqRes free, contributions towards server costs are appreciated!\"}}\n\n"},{"result":{"nanos":192700,"startTime":1728440927581,"endTime":1728440927581,"millis":0.1927,"status":"passed"},"step":{"line":9,"prefix":"Then","index":2,"text":"status 200"}},{"result":{"nanos":43210200,"errorMessage":"js failed:\n>>>>\n01: data[0].name\n<<<<\norg.graalvm.polyglot.PolyglotException: ReferenceError: \"data\" is not defined\n- <js>.:program(Unnamed:1)\n\nclasspath:features\/request.feature:10","startTime":1728440927583,"endTime":1728440927626,"millis":43.2102,"status":"failed"},"step":{"line":10,"prefix":"*","index":3,"text":"def name1 = data[0].name"},"stepLog":"21:28:47.655 classpath:features\/request.feature:10\n* def name1 = data[0].name\njs failed:\n>>>>\n01: data[0].name\n<<<<\norg.graalvm.polyglot.PolyglotException: ReferenceError: \"data\" is not defined\n- <js>.:program(Unnamed:1)\n\nclasspath:features\/request.feature:10\n"},{"result":{"nanos":0,"startTime":1728440927655,"endTime":1728440927655,"millis":0.0,"status":"skipped"},"step":{"line":11,"prefix":"*","index":4,"text":"print 'first name >>> ', name1"}}],"line":6,"description":"","durationMillis":2866.7849,"failed":true,"error":"js failed:\n>>>>\n01: data[0].name\n<<<<\norg.graalvm.polyglot.PolyglotException: ReferenceError: \"data\" is not defined\n- <js>.:program(Unnamed:1)\n\nclasspath:features\/request.feature:10","tags":["Test-reqrest"],"executorName":"pool-1-thread-1","name":"Get user","startTime":1728440924322,"refId":"[1:6]","endTime":1728440927655,"exampleIndex":-1}],"callDepth":0,"name":"Api reqrest","description":"","resultDate":"2024-10-08 09:28:47 p. m.","durationMillis":2866.7849,"passedCount":0}