{"failedCount":0,"prefixedPath":"classpath:features\/request.feature","packageQualifiedName":"features.request","loopIndex":-1,"relativePath":"features\/request.feature","scenarioResults":[{"sectionIndex":0,"stepResults":[{"result":{"nanos":3733500,"startTime":1728441021664,"endTime":1728441021668,"millis":3.7335,"status":"passed"},"step":{"background":true,"line":3,"prefix":"*","index":0,"text":"url 'https:\/\/reqres.in'"},"stepLog":"21:30:21.566 karate.env system property was: null \n"},{"result":{"nanos":1577600,"startTime":1728441021675,"endTime":1728441021677,"millis":1.5776,"status":"passed"},"step":{"line":7,"prefix":"Given","index":0,"text":"path 'api\/users?page=2'"}},{"result":{"nanos":2215891500,"startTime":1728441021677,"endTime":1728441023893,"millis":2215.8915,"status":"passed"},"step":{"line":8,"prefix":"When","index":1,"text":"method get"},"stepLog":"21:30:22.846 request:\n1 > GET https:\/\/reqres.in\/api\/users%3Fpage=2\n1 > Host: reqres.in\n1 > Connection: Keep-Alive\n1 > User-Agent: Apache-HttpClient\/4.5.14 (Java\/17.0.2)\n1 > Accept-Encoding: gzip,deflate\n\n\n21:30:23.706 response time in milliseconds: 850\n1 < 200\n1 < Date: Wed, 09 Oct 2024 02:30:23 GMT\n1 < Content-Type: application\/json; charset=utf-8\n1 < Transfer-Encoding: chunked\n1 < Connection: keep-alive\n1 < Report-To: {\"group\":\"heroku-nel\",\"max_age\":3600,\"endpoints\":[{\"url\":\"https:\/\/nel.heroku.com\/reports?ts=1728440791&sid=c4c9725f-1ab0-44d8-820f-430df2718e11&s=hgBzpwaEdKInQ4XvbRO3aVrHcHvnETwQBOwRlB6uhGs%3D\"}]}\n1 < Reporting-Endpoints: heroku-nel=https:\/\/nel.heroku.com\/reports?ts=1728440791&sid=c4c9725f-1ab0-44d8-820f-430df2718e11&s=hgBzpwaEdKInQ4XvbRO3aVrHcHvnETwQBOwRlB6uhGs%3D\n1 < Nel: {\"report_to\":\"heroku-nel\",\"max_age\":3600,\"success_fraction\":0.005,\"failure_fraction\":0.05,\"response_headers\":[\"Via\"]}\n1 < X-Powered-By: Express\n1 < Access-Control-Allow-Origin: *\n1 < Etag: W\/\"2c1-N6Rqerxquq2kgQhL51EiSg4x0R8\"\n1 < Via: 1.1 vegur\n1 < Cache-Control: max-age=14400\n1 < CF-Cache-Status: HIT\n1 < Age: 232\n1 < Vary: Accept-Encoding\n1 < Server: cloudflare\n1 < CF-RAY: 8cfaf2ccacd7c838-ARI\n{\"page\":1,\"per_page\":6,\"total\":12,\"total_pages\":2,\"data\":[{\"id\":1,\"name\":\"cerulean\",\"year\":2000,\"color\":\"#98B2D1\",\"pantone_value\":\"15-4020\"},{\"id\":2,\"name\":\"fuchsia rose\",\"year\":2001,\"color\":\"#C74375\",\"pantone_value\":\"17-2031\"},{\"id\":3,\"name\":\"true red\",\"year\":2002,\"color\":\"#BF1932\",\"pantone_value\":\"19-1664\"},{\"id\":4,\"name\":\"aqua sky\",\"year\":2003,\"color\":\"#7BC4C4\",\"pantone_value\":\"14-4811\"},{\"id\":5,\"name\":\"tigerlily\",\"year\":2004,\"color\":\"#E2583E\",\"pantone_value\":\"17-1456\"},{\"id\":6,\"name\":\"blue turquoise\",\"year\":2005,\"color\":\"#53B0AE\",\"pantone_value\":\"15-5217\"}],\"support\":{\"url\":\"https:\/\/reqres.in\/#support-heading\",\"text\":\"To keep ReqRes free, contributions towards server costs are appreciated!\"}}\n\n"},{"result":{"nanos":96700,"startTime":1728441023893,"endTime":1728441023893,"millis":0.0967,"status":"passed"},"step":{"line":9,"prefix":"Then","index":2,"text":"status 200"}},{"result":{"nanos":46503300,"startTime":1728441023893,"endTime":1728441023940,"millis":46.5033,"status":"passed"},"step":{"line":10,"prefix":"*","index":3,"text":"def name1 = response.data[0].name"}},{"result":{"nanos":20318600,"startTime":1728441023941,"endTime":1728441023961,"millis":20.3186,"status":"passed"},"step":{"line":11,"prefix":"*","index":4,"text":"print 'first name >>> ', name1"},"stepLog":"21:30:23.953 [print] first name >>>  cerulean \n"}],"line":6,"description":"","durationMillis":2288.1212,"failed":false,"tags":["Test-reqrest"],"executorName":"pool-1-thread-1","name":"Get user","startTime":1728441021400,"refId":"[1:6]","endTime":1728441023962,"exampleIndex":-1}],"callDepth":0,"name":"Api reqrest","description":"","resultDate":"2024-10-08 09:30:23 p. m.","durationMillis":2288.1212,"passedCount":1}