{"failedCount":0,"prefixedPath":"classpath:features\/request.feature","packageQualifiedName":"features.request","loopIndex":-1,"relativePath":"features\/request.feature","scenarioResults":[{"sectionIndex":0,"stepResults":[{"result":{"nanos":4880100,"startTime":1728440789462,"endTime":1728440789467,"millis":4.8801,"status":"passed"},"step":{"background":true,"line":3,"prefix":"*","index":0,"text":"url 'https:\/\/reqres.in'"},"stepLog":"21:26:29.169 karate.env system property was: null \n"},{"result":{"nanos":2363800,"startTime":1728440789478,"endTime":1728440789480,"millis":2.3638,"status":"passed"},"step":{"line":7,"prefix":"Given","index":0,"text":"path 'api\/users?page=2'"}},{"result":{"nanos":2812158000,"startTime":1728440789481,"endTime":1728440792293,"millis":2812.158,"status":"passed"},"step":{"line":8,"prefix":"When","index":1,"text":"method get"},"stepLog":"21:26:30.793 request:\n1 > GET https:\/\/reqres.in\/api\/users%3Fpage=2\n1 > Host: reqres.in\n1 > Connection: Keep-Alive\n1 > User-Agent: Apache-HttpClient\/4.5.14 (Java\/17.0.2)\n1 > Accept-Encoding: gzip,deflate\n\n\n21:26:32.189 response time in milliseconds: 1367\n1 < 200\n1 < Date: Wed, 09 Oct 2024 02:26:31 GMT\n1 < Content-Type: application\/json; charset=utf-8\n1 < Transfer-Encoding: chunked\n1 < Connection: keep-alive\n1 < Report-To: {\"group\":\"heroku-nel\",\"max_age\":3600,\"endpoints\":[{\"url\":\"https:\/\/nel.heroku.com\/reports?ts=1728440791&sid=c4c9725f-1ab0-44d8-820f-430df2718e11&s=hgBzpwaEdKInQ4XvbRO3aVrHcHvnETwQBOwRlB6uhGs%3D\"}]}\n1 < Reporting-Endpoints: heroku-nel=https:\/\/nel.heroku.com\/reports?ts=1728440791&sid=c4c9725f-1ab0-44d8-820f-430df2718e11&s=hgBzpwaEdKInQ4XvbRO3aVrHcHvnETwQBOwRlB6uhGs%3D\n1 < Nel: {\"report_to\":\"heroku-nel\",\"max_age\":3600,\"success_fraction\":0.005,\"failure_fraction\":0.05,\"response_headers\":[\"Via\"]}\n1 < X-Powered-By: Express\n1 < Access-Control-Allow-Origin: *\n1 < Etag: W\/\"2c1-N6Rqerxquq2kgQhL51EiSg4x0R8\"\n1 < Via: 1.1 vegur\n1 < Cache-Control: max-age=14400\n1 < CF-Cache-Status: MISS\n1 < Vary: Accept-Encoding\n1 < Server: cloudflare\n1 < CF-RAY: 8cfaed220df3c840-ARI\n{\"page\":1,\"per_page\":6,\"total\":12,\"total_pages\":2,\"data\":[{\"id\":1,\"name\":\"cerulean\",\"year\":2000,\"color\":\"#98B2D1\",\"pantone_value\":\"15-4020\"},{\"id\":2,\"name\":\"fuchsia rose\",\"year\":2001,\"color\":\"#C74375\",\"pantone_value\":\"17-2031\"},{\"id\":3,\"name\":\"true red\",\"year\":2002,\"color\":\"#BF1932\",\"pantone_value\":\"19-1664\"},{\"id\":4,\"name\":\"aqua sky\",\"year\":2003,\"color\":\"#7BC4C4\",\"pantone_value\":\"14-4811\"},{\"id\":5,\"name\":\"tigerlily\",\"year\":2004,\"color\":\"#E2583E\",\"pantone_value\":\"17-1456\"},{\"id\":6,\"name\":\"blue turquoise\",\"year\":2005,\"color\":\"#53B0AE\",\"pantone_value\":\"15-5217\"}],\"support\":{\"url\":\"https:\/\/reqres.in\/#support-heading\",\"text\":\"To keep ReqRes free, contributions towards server costs are appreciated!\"}}\n\n"},{"result":{"nanos":149200,"startTime":1728440792299,"endTime":1728440792299,"millis":0.1492,"status":"passed"},"step":{"line":9,"prefix":"Then","index":2,"text":"status 200"}}],"line":6,"description":"","durationMillis":2819.5511,"failed":false,"tags":["Test-reqrest"],"executorName":"pool-1-thread-1","name":"Get user","startTime":1728440788965,"refId":"[1:6]","endTime":1728440792300,"exampleIndex":-1}],"callDepth":0,"name":"Api reqrest","description":"","resultDate":"2024-10-08 09:26:32 p. m.","durationMillis":2819.5511,"passedCount":1}